Data,Otwarcie,Najwyzszy,Najnizszy,Zamkniecie,Wolumen
2022-01-03,2.5,2.55,2.5,2.55,660
2022-01-04,2.5,2.59,2.5,2.59,3055
2022-01-05,2.6,2.86,2.6,2.86,7397
2022-01-07,2.86,3.4,2.86,3.3,18025
2022-01-10,3.43,4.14,3.43,4.14,51529
2022-01-11,4.45,5.18,4.45,5.18,75149
2022-01-12,6.4,6.4,4.5,4.5,202367
2022-01-13,4.5,4.95,4.07,4.72,62282
2022-01-14,4.74,4.9,4.3,4.68,15155
2022-01-17,4.66,4.66,3.95,4.1,39344
2022-01-18,4.29,4.29,3.6,3.6,17616
2022-01-19,3.6,3.85,3.3,3.32,13766
2022-01-20,3.28,3.93,3.02,3.8,54123
2022-01-21,3.8,3.84,3.69,3.7,5349
2022-01-24,3.36,3.58,3.23,3.3,11563
2022-01-25,3.44,3.44,3.15,3.3,7762
2022-01-26,3.2,3.39,3.1,3.37,2353
2022-01-27,3.2,3.35,3.1,3.29,6854
2022-01-28,3.18,3.3,3.11,3.22,9886
2022-01-31,3.22,3.22,3.1,3.2,1839
2022-02-01,3.21,3.35,3.14,3.28,4868
2022-02-02,3.28,3.33,3.17,3.17,1957
2022-02-03,3.24,3.31,3.11,3.29,2082
2022-02-04,3.29,3.7,3.29,3.58,13832
2022-02-07,3.62,3.84,3.34,3.64,13727
2022-02-08,3.4,3.63,3.4,3.62,1075
2022-02-09,3.5,3.59,3.4,3.5,1585
2022-02-10,3.5,3.5,3.2,3.37,3577
2022-02-11,3.35,3.4,3.35,3.4,668
2022-02-14,3.4,3.4,3.17,3.3,1680
2022-02-15,3.16,3.42,3.1,3.42,1032
2022-02-16,3.4,3.48,3.4,3.46,408
2022-02-17,3.48,3.78,3.4,3.4,9322
2022-02-18,3.44,3.48,3.1,3.28,1052
2022-02-21,3.3,3.5,3.18,3.36,5975
2022-02-22,3.05,3.34,3.04,3.2,5491
2022-02-23,3.21,3.3,3.1,3.2,3727
2022-02-24,2.9,3.1,2.61,2.92,14283
2022-02-25,2.92,3.14,2.92,3.14,556
2022-02-28,3.14,3.14,2.9,3.13,453
2022-03-01,2.92,3,2.68,3,3788
2022-03-02,3,3,2.7,2.9,7902
2022-03-03,2.86,2.91,2.57,2.75,12933
2022-03-04,2.74,2.74,2.4,2.72,11723
2022-03-07,2.7,2.95,2.48,2.95,5545
2022-03-08,2.9,2.9,2.9,2.9,5
2022-03-09,2.75,2.8,2.71,2.8,1515
2022-03-10,2.8,2.81,2.64,2.81,2498
2022-03-11,2.82,2.88,2.62,2.76,4091
2022-03-14,2.76,2.9,2.64,2.9,5652
2022-03-15,2.94,3.03,2.86,2.98,1370
2022-03-16,2.86,3,2.86,3,1191
2022-03-17,2.99,3.15,2.82,2.82,2701
2022-03-18,2.8,2.88,2.64,2.82,5723
2022-03-21,2.78,3.88,2.78,3.75,45803
2022-03-22,3.72,3.72,3.32,3.4,13948
2022-03-23,3.4,3.4,3.14,3.34,3694
2022-03-24,3.18,3.52,3.03,3.5,9515
2022-03-25,3.3,3.68,3.3,3.57,4645
2022-03-28,3.57,3.6,3.3,3.48,2570
2022-03-29,3.46,3.46,3.24,3.39,1605
2022-03-30,3.39,3.39,3.23,3.36,707
2022-03-31,3.21,3.3,3.16,3.3,2041
2022-04-01,3.28,3.28,3.28,3.28,225
2022-04-04,3.29,3.3,3.2,3.29,1074
2022-04-05,3.29,3.29,3,3,9135
2022-04-06,3.06,3.06,3,3,4350
2022-04-07,3.12,3.12,3.1,3.1,36
2022-04-08,3.1,3.1,2.91,3.1,4466
2022-04-11,2.97,3.09,2.97,3.09,75
2022-04-12,3.09,3.09,3.09,3.09,2
2022-04-13,3,3.08,3,3.08,110
2022-04-14,3.08,3.08,3.05,3.05,433
2022-04-19,3.05,3.08,2.81,3.02,4974
2022-04-20,3.02,3.04,2.91,3.04,560
2022-04-21,3.01,3.08,2.88,2.9,840
2022-04-22,2.9,3.03,2.88,2.88,73
2022-04-25,3,3,3,3,517
2022-04-26,3,3,2.8,2.95,1760
2022-04-27,2.9,2.99,2.9,2.99,618
2022-04-28,2.99,2.99,2.87,2.94,390
2022-04-29,2.81,2.99,2.8,2.99,1385
2022-05-02,2.9,2.91,2.9,2.91,204
2022-05-04,3.02,3.06,3.02,3.05,213
2022-05-05,3.05,3.05,2.88,2.99,565
2022-05-06,2.99,2.99,2.72,2.98,2598
2022-05-09,2.85,2.85,2.85,2.85,2010
2022-05-10,2.82,2.9,2.8,2.9,658
2022-05-11,2.76,2.78,2.64,2.78,260
2022-05-12,2.66,2.75,2.58,2.7,1060
2022-05-13,2.7,2.7,2.7,2.7,221
2022-05-16,2.53,2.75,2.53,2.75,569
2022-05-18,2.7,2.7,2.7,2.7,10
2022-05-19,2.7,2.7,2.65,2.65,210
2022-05-20,2.7,2.7,2.58,2.68,2077
2022-05-24,2.56,2.63,2.53,2.63,1022
2022-05-25,2.51,2.62,2.5,2.62,1513
2022-05-26,2.51,2.54,2.34,2.54,2578
2022-05-27,2.55,2.6,2.45,2.6,1162
2022-05-30,2.5,2.61,2.5,2.61,210
2022-06-01,2.62,2.76,2.62,2.76,1001
2022-06-02,2.76,2.76,2.76,2.76,10
2022-06-03,2.76,2.76,2.76,2.76,590
2022-06-06,2.65,2.77,2.65,2.77,614
2022-06-07,2.77,2.82,2.66,2.82,601
2022-06-08,2.71,3.26,2.71,2.92,17966
2022-06-09,3.14,3.57,2.79,2.79,61214
2022-06-10,2.79,2.94,2.66,2.73,11256
2022-06-13,2.74,2.74,2.6,2.7,4692
2022-06-14,2.61,2.65,2.54,2.65,2993
2022-06-15,2.68,2.86,2.62,2.84,1175
2022-06-17,2.8,2.8,2.54,2.8,809
2022-06-20,2.79,2.8,2.79,2.8,15
2022-06-21,2.64,2.84,2.54,2.82,3243
2022-06-22,2.8,2.8,2.6,2.76,241
2022-06-23,2.76,2.76,2.58,2.72,1849
2022-06-24,2.75,2.75,2.6,2.73,710
2022-06-27,2.6,2.6,2.54,2.54,1589
2022-06-28,2.7,2.7,2.5,2.7,3465
2022-06-29,2.69,2.69,2.69,2.69,10
2022-06-30,2.69,2.69,2.5,2.66,522
2022-07-01,2.67,2.7,2.67,2.7,1127
2022-07-04,2.7,2.7,2.32,2.68,774
2022-07-05,2.42,2.65,2.38,2.65,8763
2022-07-06,2.6,2.65,2.42,2.6,2740
2022-07-07,2.6,2.6,2.42,2.42,1515
2022-07-08,2.58,2.58,2.45,2.45,1100
2022-07-11,2.4,2.53,2.38,2.52,705
2022-07-12,2.52,2.59,2.32,2.56,2029
2022-07-13,2.54,2.54,2.34,2.41,1011
2022-07-14,2.38,2.51,2.17,2.23,2510
2022-07-15,2.33,2.43,2.12,2.42,848
2022-07-18,2.23,2.42,2.2,2.31,5390
2022-07-19,2.31,2.35,1.875,2.31,29778
2022-07-20,2.3,2.33,2.21,2.24,3575
2022-07-21,2.3,2.31,2.3,2.31,310
2022-07-22,2.18,2.31,1.9,1.9,5837
2022-07-25,2.09,2.43,2.09,2.43,16488
2022-07-26,2.44,2.84,2.44,2.84,42159
2022-07-27,2.88,3.48,2.88,3.1,33271
2022-07-28,3.08,3.18,2.95,3.18,8216
2022-07-29,3.2,3.2,3.15,3.2,2576
2022-08-01,3.2,3.3,3.1,3.1,368
2022-08-02,3.09,3.09,2.92,2.92,210
2022-08-03,2.83,3,2.8,2.8,1521
2022-08-04,2.78,2.88,2.7,2.84,4104
2022-08-05,2.84,2.84,2.84,2.84,10
2022-08-08,2.74,2.84,2.58,2.72,10390
2022-08-09,2.72,2.72,2.56,2.57,1010
2022-08-10,2.56,2.6,2.5,2.6,3310
2022-08-11,2.55,2.62,2.4,2.6,5110
2022-08-12,2.5,2.63,2.46,2.63,1769
2022-08-16,2.64,2.66,2.5,2.51,4424
2022-08-17,2.51,2.51,2.44,2.48,3655
2022-08-18,2.54,2.59,2.41,2.59,896
2022-08-19,2.59,2.66,2.56,2.64,2261
2022-08-22,2.64,2.64,2.45,2.6,1752
2022-08-23,2.59,2.59,2.35,2.35,11424
2022-08-24,2.36,2.56,2.3,2.42,22466
2022-08-25,2.43,2.47,2.35,2.47,718
2022-08-29,2.46,2.46,2.46,2.46,410
2022-08-30,2.46,2.5,2.46,2.5,2630
2022-08-31,2.52,2.52,2.52,2.52,180
2022-09-01,2.53,2.57,2.53,2.57,1253
2022-09-02,2.4,2.62,2.31,2.62,2654
2022-09-05,2.4,2.74,2.4,2.74,1199
2022-09-06,2.52,2.73,2.52,2.64,2177
2022-09-07,2.63,2.64,2.63,2.64,102
2022-09-08,2.65,2.65,2.65,2.65,103
2022-09-09,2.52,2.64,2.51,2.64,2845
2022-09-12,2.52,2.6,2.42,2.5,1272
2022-09-13,2.36,2.54,2.36,2.54,1077
2022-09-14,2.43,2.44,2.2,2.39,7565
2022-09-15,2.39,2.4,2.3,2.39,3456
2022-09-16,2.4,2.49,2.35,2.48,3015
2022-09-19,2.48,2.48,2.27,2.47,2042
2022-09-20,2.5,2.58,2.45,2.58,980
2022-09-21,2.4,2.57,2.4,2.57,1332
2022-09-22,2.56,2.59,2.33,2.53,3638
2022-09-23,2.5,2.5,2.35,2.49,1225
2022-09-26,2.48,2.48,2.36,2.36,3198
2022-09-27,2.36,2.59,2.36,2.59,3008
2022-09-28,2.6,2.64,2.6,2.64,2112
2022-09-29,2.66,2.72,2.57,2.72,1585
2022-09-30,2.94,2.96,2.3,2.59,11455
2022-10-03,2.52,2.74,2.51,2.65,4509
2022-10-04,2.7,2.89,2.7,2.8,3141
2022-10-05,2.85,2.85,2.66,2.85,3527
2022-10-06,2.84,2.85,2.58,2.8,569
2022-10-07,2.82,2.89,2.82,2.89,225
2022-10-10,2.98,3.02,2.8,2.8,13697
2022-10-11,2.8,2.8,2.7,2.75,1495
2022-10-12,2.75,2.79,2.64,2.79,2330
2022-10-13,2.7,2.78,2.7,2.76,2500
2022-10-14,2.8,2.8,2.8,2.8,130
2022-10-17,2.8,2.8,2.64,2.79,1181
2022-10-18,2.79,2.79,2.64,2.64,288
2022-10-19,2.76,2.76,2.54,2.54,1564
2022-10-20,2.65,2.8,2.63,2.7,3111
2022-10-21,2.69,2.78,2.43,2.56,4340
2022-10-24,2.44,2.8,2.4,2.69,4906
2022-10-25,2.69,2.69,2.6,2.6,217
2022-10-26,2.57,2.68,2.57,2.66,940
2022-10-27,2.6,2.6,2.58,2.58,30
2022-10-28,2.58,2.58,2.5,2.5,949
2022-10-31,2.5,2.59,2.4,2.59,85
2022-11-02,2.56,2.56,2.31,2.35,12451
2022-11-03,2.46,2.46,2.31,2.33,5758
2022-11-04,2.33,2.43,2.3,2.43,4918
2022-11-07,2.45,2.5,2.44,2.5,11403
2022-11-08,2.5,2.59,2.5,2.59,720
2022-11-09,2.52,2.59,2.52,2.59,1786
2022-11-10,2.59,2.67,2.52,2.66,3477
2022-11-14,2.66,2.66,2.44,2.55,4172
2022-11-15,2.55,2.55,2.55,2.55,250
2022-11-16,2.5,2.5,2.36,2.5,3216
2022-11-17,2.42,2.6,2.42,2.6,3576
2022-11-18,2.6,2.67,2.6,2.67,775
2022-11-21,2.7,2.7,2.52,2.61,2560
2022-11-23,2.62,2.69,2.62,2.69,1228
2022-11-24,2.78,2.78,2.74,2.78,1415
2022-11-25,2.74,2.78,2.58,2.78,6551
2022-11-28,2.78,2.79,2.7,2.78,1410
2022-11-29,2.8,2.8,2.76,2.79,1454
2022-11-30,2.79,2.79,2.79,2.79,35
2022-12-01,2.79,2.79,2.79,2.79,495
2022-12-02,2.78,2.78,2.78,2.78,20
2022-12-05,2.78,2.78,2.7,2.78,931
2022-12-06,2.78,2.78,2.78,2.78,100
2022-12-07,2.79,2.79,2.79,2.79,20
2022-12-08,2.79,2.79,2.64,2.76,2837
2022-12-09,2.75,2.75,2.73,2.73,256
2022-12-12,2.75,2.75,2.64,2.64,148
2022-12-13,2.73,2.74,2.73,2.74,50
2022-12-14,2.74,2.75,2.74,2.75,76
2022-12-15,2.74,2.74,2.74,2.74,10
2022-12-16,2.74,2.74,2.7,2.7,31
2022-12-19,2.7,2.7,2.64,2.64,372
2022-12-21,2.64,2.64,2.64,2.64,33
2022-12-23,2.63,2.63,2.58,2.58,360
2022-12-27,2.58,2.63,2.54,2.54,3980
2022-12-28,2.6,2.67,2.6,2.6,115
2022-12-29,2.6,2.61,2.51,2.61,6070
2022-12-30,2.61,2.76,2.61,2.76,771
