Data,Otwarcie,Zamkniecie,Maks.,Min.,Obrót (mln. zł),Zmiana (%)
2022-12-30,14.74,14.5,14.74,14.36,1.18,-0.68
2022-12-29,14.31,14.6,14.85,14.18,1.55,1.81
2022-12-28,14.4,14.34,14.58,14,1.75,-0.42
2022-12-27,14.51,14.4,14.59,14.1,2.57,-1.37
2022-12-23,14.68,14.6,14.68,14.4,0.52,0
2022-12-22,14.55,14.6,14.69,14.5,0.97,0.62
2022-12-21,15.13,14.51,15.38,14.3,4.21,-4.22
2022-12-20,14.42,15.15,15.25,14.22,3.06,5.06
2022-12-19,15.07,14.42,15.44,14.42,2.75,-4.94
2022-12-16,15.25,15.17,15.47,15.09,1.53,-1.94
2022-12-15,16.09,15.47,16.18,15.47,2.15,-4.51
2022-12-14,16.4,16.2,16.6,16.2,1.14,-1.46
2022-12-13,16.15,16.44,16.67,16.03,2.46,1.8
2022-12-12,15.5,16.15,16.17,15.26,3.48,4.33
2022-12-09,15.12,15.48,15.5,15,1.66,2.31
2022-12-08,15.46,15.13,15.46,15.04,1.39,-2.13
2022-12-07,15.19,15.46,15.46,15,1.86,1.71
2022-12-06,15.4,15.2,15.67,15.17,2.48,-1.94
2022-12-05,14.75,15.5,15.5,14.72,4.53,6.24
2022-12-02,14.2,14.59,14.71,14.09,2.72,2.46
2022-12-01,14.55,14.24,14.89,14.2,5.29,-0.49
2022-11-30,14.6,14.31,14.61,14.14,2.29,-1.99
2022-11-29,14.49,14.6,14.7,14.11,3.4,0.69
2022-11-28,14.34,14.5,14.68,13.85,3.09,6.62
2022-11-25,13.6,13.6,13.6,13.6,0,0
2022-11-24,13.44,13.6,13.77,13.36,3,3.19
2022-11-23,13,13.18,13.49,13,1.71,1.38
2022-11-22,12.9,13,13.02,12.86,1.27,1.17
2022-11-21,12.91,12.85,13.08,12.82,0.51,0.23
2022-11-18,12.95,12.82,12.95,12.81,1.2,-1
2022-11-17,12.81,12.95,13.14,12.81,1.15,2.05
2022-11-16,12.55,12.69,13.03,12.55,1.44,-0.08
2022-11-15,13,12.7,13.03,12.66,1.89,-2.16
2022-11-14,13,12.98,13.49,12.84,3.86,4.76
2022-11-10,12.06,12.39,12.44,11.86,1.06,2.65
2022-11-09,12.1,12.07,12.24,12.03,0.47,-0.9
2022-11-08,12.1,12.18,12.29,12.1,0.2,-0.81
2022-11-07,12.33,12.28,12.38,12.09,1.88,-0.16
2022-11-04,11.93,12.3,12.4,11.9,1.19,3.1
2022-11-03,12.09,11.93,12.17,11.8,0.71,-2.21
2022-11-02,12.2,12.2,12.6,12.03,1.03,0
2022-10-31,11.91,12.2,12.2,11.81,0.69,2.52
2022-10-28,11.75,11.9,12.05,11.55,0.85,1.28
2022-10-27,11.44,11.75,11.8,11.3,0.71,2.17
2022-10-26,11.16,11.5,11.5,11,0.87,3.6
2022-10-25,11.15,11.1,11.42,11,0.51,-1.51
2022-10-24,11.39,11.27,11.39,11.05,0.3,1.62
2022-10-21,11.32,11.09,11.35,11.09,0.34,-2.46
2022-10-20,11.2,11.37,11.37,11.03,0.34,1.52
2022-10-19,11.43,11.2,11.43,11.19,0.17,-2.01
2022-10-18,11.4,11.43,11.45,11.22,0.48,0.44
2022-10-17,11.35,11.38,11.4,11.1,0.27,0.26
2022-10-14,11.25,11.35,11.46,11.2,0.73,2.25
2022-10-13,10.79,11.1,11.13,10.63,0.48,2.97
2022-10-12,10.61,10.78,10.88,10.6,0.39,1.7
2022-10-11,10.8,10.6,10.9,10.6,0.79,-1.85
2022-10-10,11,10.8,11.09,10.78,0.41,-1.91
2022-10-07,11.11,11.01,11.29,10.95,0.31,-1.26
2022-10-06,11.25,11.15,11.35,11.05,0.16,-0.62
2022-10-05,11.2,11.22,11.34,10.94,0.8,0.18
2022-10-04,11.1,11.2,11.44,10.95,1.14,1.08
2022-10-03,10.81,11.08,11.08,10.61,0.59,2.59
2022-09-30,10.9,10.8,10.9,10.55,0.72,0
2022-09-29,11,10.8,11.05,10.51,0.55,-1.1
2022-09-28,11,10.92,11.06,10.78,0.37,-1.62
2022-09-27,11.4,11.1,11.4,10.8,0.73,1.83
2022-09-26,11.62,10.9,11.62,10.9,1.58,-6.12
2022-09-23,12.34,11.61,12.34,11.61,0.82,-5.92
2022-09-22,12,12.34,12.4,12,0.56,2.41
2022-09-21,12.25,12.05,12.38,11.98,0.6,-1.63
2022-09-20,12.7,12.25,12.9,12.25,0.59,-2.47
2022-09-19,12.2,12.56,12.57,12.2,0.4,1.29
2022-09-16,12.49,12.4,12.6,12.25,1.02,-2.13
2022-09-15,12.19,12.67,12.67,12.15,0.58,3.85
2022-09-14,12.03,12.2,12.41,12.01,0.64,-0.81
2022-09-13,12.89,12.3,12.89,12.2,0.95,-2.38
2022-09-12,13.05,12.6,13.19,12.56,0.68,-2.33
2022-09-09,12.77,12.9,13,12.6,0.72,3.2
2022-09-08,12.18,12.5,12.56,12.1,0.81,3.14
2022-09-07,12,12.12,12.44,11.72,0.79,1
2022-09-06,12.06,12,12.44,11.86,0.7,-0.5
2022-09-05,12.23,12.06,12.51,12.06,0.56,-3.83
2022-09-02,12.55,12.54,12.78,12.2,0.62,1.95
2022-09-01,13.08,12.3,13.2,12.3,1.87,-6.11
2022-08-31,11.77,13.1,13.2,11.77,3.81,11.11
2022-08-30,12.52,11.79,12.75,11.52,2.01,-5.23
2022-08-29,12.96,12.44,12.99,12.4,2.17,-5.76
2022-08-26,13.81,13.2,13.9,13.11,1.34,-4.97
2022-08-25,13.4,13.89,14,13.38,1.7,4.83
2022-08-24,13.64,13.25,13.65,13.13,1.27,-2.93
2022-08-23,13.28,13.65,13.68,12.96,1.27,3.02
2022-08-22,12.9,13.25,13.64,12.8,1.42,1.92
2022-08-19,13.4,13,13.43,13,0.96,-3.63
2022-08-18,13.35,13.49,13.68,13.03,1.45,1.58
2022-08-17,14,13.28,14.16,12.74,3.23,-5.01
2022-08-16,14.29,13.98,14.5,13.94,3.17,-0.29
2022-08-12,14.22,14.02,14.5,13.9,1.38,-1.27
2022-08-11,14.49,14.2,14.8,14.16,4.78,0.07
2022-08-10,13.78,14.19,14.19,13.56,1.33,4.19
2022-08-09,14,13.62,14.2,13.55,2.01,-2.58
2022-08-08,12.93,13.98,14,12.93,3.89,8.12
2022-08-05,13.53,12.93,13.58,12.82,2.29,-2.05
2022-08-04,13.55,13.2,13.96,13.2,2.42,-2.94
2022-08-03,14.86,13.6,14.9,13.55,5.12,-6.85
2022-08-02,14.84,14.6,14.95,14.36,5.54,-0.61
2022-08-01,13.5,14.69,14.75,13.25,6.69,11.71
2022-07-29,13.24,13.15,13.25,12.91,2.33,0.77
2022-07-28,12.34,13.05,13.05,12.07,2.56,6.62
2022-07-27,12.9,12.24,13.1,12.24,2.18,-3.47
2022-07-26,11.73,12.68,12.85,11.4,5.07,9.22
2022-07-25,11.98,11.61,12.03,11.61,0.67,-2.35
2022-07-22,12,11.89,12.18,11.81,1.01,0.93
2022-07-21,11.45,11.78,11.8,11.33,1.23,2.61
2022-07-20,11.48,11.48,11.49,11.07,0.9,0.26
2022-07-19,11.04,11.45,11.5,11.04,1.01,-0.43
2022-07-18,10.99,11.5,11.81,10.86,2.69,7.98
2022-07-15,10.88,10.65,10.88,10.65,0.26,-2.11
2022-07-14,10.52,10.88,10.88,10.42,0.34,3.62
2022-07-13,10.84,10.5,10.88,10.5,0.45,-2.78
2022-07-12,11.05,10.8,11.05,10.8,0.39,-0.74
2022-07-11,11.15,10.88,11.17,10.88,0.64,-1.98
2022-07-08,10.64,11.1,11.17,10.64,1.02,4.72
2022-07-07,10.35,10.6,10.6,10.35,0.55,3.92
2022-07-06,10.06,10.2,10.38,10.06,0.45,0.69
2022-07-05,10.84,10.13,10.84,10.13,1.02,-5.5
2022-07-04,11.03,10.72,11.03,10.7,0.31,-2.46
2022-07-01,10.76,10.99,11.01,10.68,0.45,2.04
2022-06-30,11,10.77,11.03,10.72,0.38,-2.09
2022-06-29,10.82,11,11.02,10.81,0.33,0
2022-06-28,10.83,11,11.11,10.83,0.36,1.29
2022-06-27,11,10.86,11,10.8,0.49,-0.91
2022-06-24,10.73,10.96,11,10.32,1.06,2.43
2022-06-23,11,10.7,11,10.7,0.4,-1.83
2022-06-22,11.22,10.9,11.22,10.87,0.44,-2.85
2022-06-21,11.17,11.22,11.22,11,0.97,2
2022-06-20,11,11,11.11,10.91,0.37,0
2022-06-17,11.15,11,11.18,11,0.57,-0.99
2022-06-15,10.98,11.11,11.12,10.8,0.6,2.49
2022-06-14,10.67,10.84,10.92,10.45,0.86,1.69
2022-06-13,11,10.66,11.1,10.66,0.96,-4.31
2022-06-10,11.23,11.14,11.23,10.84,0.63,-0.27
2022-06-09,11.1,11.17,11.2,10.92,1.07,0.63
2022-06-08,11.3,11.1,11.4,11.04,1.48,-1.86
2022-06-07,11.67,11.31,11.67,11.16,2.08,-1.82
2022-06-06,11.42,11.52,11.79,11.4,0.9,0.96
2022-06-03,11.58,11.41,11.73,11.41,0.92,-1.47
2022-06-02,11.8,11.58,11.96,11.5,1.03,-1.86
2022-06-01,11.68,11.8,11.97,11.52,1.09,2.34
2022-05-31,11.8,11.53,11.8,11.52,0.71,-2.29
2022-05-30,11.58,11.8,11.9,11.55,0.94,1.9
2022-05-27,11.71,11.58,11.75,11.5,0.56,0.26
2022-05-26,11.9,11.55,11.9,11.5,1.27,-0.86
2022-05-25,12.05,11.65,12.13,11.5,1.61,-1.27
2022-05-24,12.38,11.8,12.38,11.8,1.17,-4.07
2022-05-23,12.32,12.3,12.45,12.22,1.08,1.65
2022-05-20,12.14,12.1,12.16,11.84,1.02,1.85
2022-05-19,11.8,11.88,12.3,11.64,2.05,-0.17
2022-05-18,11.73,11.9,12.7,11.73,5.29,1.45
2022-05-17,12,11.73,12,11.73,1.48,-1.35
2022-05-16,11.5,11.89,12,11.5,1.58,3.48
2022-05-13,11.42,11.49,11.77,11.27,1.5,1.5
2022-05-12,11.75,11.32,11.76,11.2,1.05,-4.55
2022-05-11,11.75,11.86,11.98,11.56,0.93,1.37
2022-05-10,11.35,11.7,11.78,11.3,0.49,3.17
2022-05-09,11.4,11.34,11.42,11.17,0.42,-0.79
2022-05-06,11.15,11.43,11.47,11.12,1.28,1.87
2022-05-05,11.74,11.22,11.8,11.22,1.28,-4.27
2022-05-04,11.65,11.72,11.8,11.45,0.6,0.86
2022-05-02,11.63,11.62,11.67,11.32,0.36,-0.26
2022-04-29,11.53,11.65,11.68,11.43,0.74,3.01
2022-04-28,11.4,11.31,11.58,11.31,0.42,-0.44
2022-04-27,11.6,11.36,11.62,11.3,0.7,-2.07
2022-04-26,11.39,11.6,11.65,11,0.93,4.5
2022-04-25,11.48,11.1,11.48,11,1.26,-3.9
2022-04-22,11.55,11.55,11.55,11.55,0,0
2022-04-21,11.8,11.55,11.84,11.51,0.85,-0.43
2022-04-20,12.03,11.6,12.16,11.59,2.14,-3.33
2022-04-19,12.34,12,12.38,11.98,0.62,-2.2
2022-04-18,12.27,12.27,12.27,12.27,0,0
2022-04-15,12.27,12.27,12.27,12.27,0,0
2022-04-14,12.23,12.27,12.36,12.11,0.44,0.74
2022-04-13,12.1,12.18,12.18,11.94,0.37,1.5
2022-04-12,12.18,12,12.18,12,0.62,-1.48
2022-04-11,11.9,12.18,12.18,11.74,0.47,2.7
2022-04-08,12,11.86,12.06,11.72,0.81,-0.34
2022-04-07,12.08,11.9,12.18,11.86,0.76,-1.65
2022-04-06,12.3,12.1,12.38,12.02,1.46,-1.47
2022-04-05,12.3,12.28,12.4,12.2,0.83,0.33
2022-04-04,12.3,12.24,12.4,12.22,1.26,0
2022-04-01,12.52,12.24,12.52,12.24,1.36,-1.13
2022-03-31,12.4,12.38,12.62,12.26,1.2,-0.8
2022-03-30,12.54,12.48,12.54,12.4,0.97,-0.48
2022-03-29,12.6,12.54,12.66,12.22,1.28,0.8
2022-03-28,12.8,12.44,12.94,12.42,1.52,-2.05
2022-03-25,13.3,12.7,13.3,12.62,2.35,-3.5
2022-03-24,13,13.16,13.2,12.72,2.03,1.86
2022-03-23,12.54,12.92,13.04,12.42,2.2,4.03
2022-03-22,12.78,12.42,12.86,12.36,1.59,-2.05
2022-03-21,12.34,12.68,12.76,12.34,1.3,2.76
2022-03-18,12.68,12.34,12.82,12.2,1.51,-2.83
2022-03-17,12.4,12.7,12.7,12.2,2.39,4.1
2022-03-16,12.04,12.2,12.42,11.98,0.91,1.84
2022-03-15,12.02,11.98,12.24,11.82,1.16,-0.33
2022-03-14,12.14,12.02,12.26,11.9,1.46,-0.99
2022-03-11,12.06,12.14,12.38,12.06,1.53,-1.94
2022-03-10,12.26,12.38,12.38,12.04,0.9,1.14
2022-03-09,11.94,12.24,12.24,11.86,1.22,3.55
2022-03-08,11.9,11.82,12.26,11.74,1.71,-3.75
2022-03-07,11.92,12.28,12.56,11.52,2.91,3.19
2022-03-04,12.12,11.9,12.4,11.88,2.93,-2.46
2022-03-03,13.38,12.2,13.42,12.2,4.63,-5.86
2022-03-02,12,12.96,12.96,11.78,2.84,8
2022-03-01,12.58,12,12.64,11.86,2.05,-1.64
2022-02-28,11.5,12.2,12.56,11.22,2.5,6.46
2022-02-25,10.62,11.46,11.46,10.62,1.7,7.91
2022-02-24,10.92,10.62,11.1,9.96,4.2,-8.45
2022-02-23,12,11.6,12.32,11.6,0.82,-1.69
2022-02-22,11,11.8,11.8,11,1.27,3.33
2022-02-21,12.06,11.42,12.34,11.4,1.59,-4.52
2022-02-18,12.3,11.96,12.32,11.9,1.18,-1.48
2022-02-17,12.88,12.14,12.88,12.14,1.49,-4.86
2022-02-16,12.76,12.76,12.96,12.66,0.81,0.16
2022-02-15,12.42,12.74,12.82,12.4,0.88,2.41
2022-02-14,12.9,12.44,12.92,12.34,1.73,-4.45
2022-02-11,13,13.02,13.2,12.88,0.69,0.31
2022-02-10,13.26,12.98,13.26,12.94,0.63,-1.67
2022-02-09,13.1,13.2,13.22,12.82,1.59,1.69
2022-02-08,13.28,12.98,13.4,12.98,1.3,-2.41
2022-02-07,13.4,13.3,13.42,13.12,0.73,0.76
2022-02-04,13.28,13.2,13.4,13.1,0.5,-0.3
2022-02-03,13.3,13.24,13.44,13.22,0.59,-0.15
2022-02-02,13.4,13.26,13.7,13.22,1.76,-0.9
2022-02-01,13.34,13.38,13.38,13.24,0.52,1.98
2022-01-31,13.5,13.12,13.5,13.1,1.13,0.92
2022-01-28,13.26,13,13.4,13,1.41,-2.26
2022-01-27,13.3,13.3,13.46,13.04,0.52,-0.3
2022-01-26,13.5,13.34,13.7,13.32,1.36,-0.45
2022-01-25,13.04,13.4,13.56,13.04,1.35,3.4
2022-01-24,13.92,12.96,14.08,12.96,2.06,-6.9
2022-01-21,14.3,13.92,14.3,13.8,1.62,-3.33
2022-01-20,14.9,14.4,14.96,14.34,1.28,-2.04
2022-01-19,14.88,14.7,15.14,14.64,1.89,-2.65
2022-01-18,15.02,15.1,15.22,14.88,2.08,0.4
2022-01-17,14.92,15.04,15.3,14.9,0.95,0.13
2022-01-14,15.28,15.02,15.28,14.9,1.53,-1.7
2022-01-13,15.3,15.28,15.3,15.06,0.91,0.53
2022-01-12,14.84,15.2,15.2,14.84,1.94,3.4
2022-01-11,14.36,14.7,14.7,14.32,1.51,3.38
2022-01-10,14.46,14.22,14.7,14.14,0.97,-0.97
2022-01-07,14.32,14.36,14.48,14.1,1,0.42
2022-01-05,14.44,14.3,14.44,14.2,0.79,-0.42
2022-01-04,14.52,14.36,14.58,14.3,0.92,-0.28
2022-01-03,14.18,14.4,14.44,14.16,0.97,0
